/* XPM */
static char * maximize_active_xpm[] = {
"24 24 8 1",
" 	c None",
".	c #2F2F2F",
"+	c #303030",
"@	c #717171",
"#	c #909090",
"$	c #7D7D7D",
"%	c #747474",
"&	c #6E6E6E",
"........................",
"........................",
"........................",
"........................",
"........................",
"........................",
"........................",
"........................",
"..........+++...........",
"..........+@##$.........",
".........+++@##.........",
"........+%+++&#.........",
"........+#%+.+&.........",
"........+##@+++.........",
"........+$##@++.........",
"........++..+...........",
"........................",
"........................",
"........................",
"........................",
"........................",
"........................",
"........................",
"........................"};
