/* XPM */
static char * menu_pressed_xpm[] = {
"24 24 19 1",
" 	c None",
".	c #2F2F2F",
"+	c #323232",
"@	c #373737",
"#	c #424242",
"$	c #2A2A2A",
"%	c #383838",
"&	c #565656",
"*	c #7B7B7B",
"=	c #8E8E8E",
"-	c #949494",
";	c #7F7F7F",
">	c #C8C8C8",
",	c #FEFEFE",
"'	c #BDBDBD",
")	c #E3E3E3",
"!	c #B1B1B1",
"~	c #F5F5F5",
"{	c #9E9E9E",
"........................",
"........................",
"........................",
"........................",
".........+..............",
"........@#@$$%#@........",
".......#.&*=-*&.#.......",
"......#+;------;+#......",
".....@.;--------;.@.....",
".....#&----------&#.....",
".....@;->,>-->,>-;%.....",
".....$=-',,)),,'-=$.....",
".....$=--!~,,~!--=$.....",
".....@;---{)){---*%.....",
".....#&=---------&#.....",
".....@$=--------;.@.....",
"......#+;------;+#......",
".......#.&*==*&.#.......",
"........@#@$$@#@........",
"..........+.............",
"........................",
"........................",
"........................",
"........................"};
