/* XPM */
static char * menu_prelight_xpm[] = {
"24 24 20 1",
" 	c None",
".	c #2F2F2F",
"+	c #323232",
"@	c #272727",
"#	c #2A2A2A",
"$	c #373737",
"%	c #444444",
"&	c #4B4B4B",
"*	c #4C4C4C",
"=	c #434343",
"-	c #515151",
";	c #868686",
">	c #C3C3C3",
",	c #7A7A7A",
"'	c #A4A4A4",
")	c #6C6C6C",
"!	c #B9B9B9",
"~	c #C4C4C4",
"{	c #565656",
"]	c #585858",
"........................",
"........................",
"........................",
"........................",
"........................",
".........+.@@.+.........",
".......+#$%&&%$#+.......",
"......+#%&****&=#+......",
".....+#%********%#+.....",
".....+$**-****-*&$+.....",
".....#=*;>;**;>;*=#.....",
".....#&*,>>''>>,&&@.....",
".....@&**)!~~!)**&@.....",
"....+#=&**{'']**&=......",
".....+$*********&$+.....",
".....+#%********=#......",
"......+#%**&**&%#+......",
".......+@$=&&=$#++......",
".........+.@@...........",
"........................",
"........................",
"........................",
"........................",
"........................"};
