/* XPM */
static char * menu_inactive_xpm[] = {
"24 24 11 1",
" 	c None",
".	c #313131",
"+	c #2F2F2F",
"@	c #494949",
"#	c #656565",
"$	c #444444",
"%	c #585858",
"&	c #3E3E3E",
"*	c #616161",
"=	c #373737",
"-	c #565656",
".+++++++++++++++++++++++",
"++++++++++++++++++++++++",
"++++++++++++++++++++++++",
"++++++++++++++++++++++++",
"++++++++++++++++++++++++",
"++++++++++++++++++++++++",
"++++++++++++++++++++++++",
"++++++++++++++++++++++++",
"++++++++++++++++++++++++",
"+++++++++.++++.+++++++++",
"++++++++@#@..@#@++++++++",
"++++++++$##%%##$++++++++",
"+++++++++&*##%$+++++++++",
"++++++++++=-%=++++++++++",
"++++++++++++++++++++++++",
"++++++++++++++++++++++++",
"++++++++++++++++++++++++",
"++++++++++++++++++++++++",
"++++++++++++++++++++++++",
"++++++++++++++++++++++++",
"++++++++++++++++++++++++",
"++++++++++++++++++++++++",
"++++++++++++++++++++++++",
"++++++++++++++++++++++++"};
