/* XPM */
static char * shade_toggled_inactive_xpm[] = {
"24 24 10 1",
" 	c None",
".	c #2F2F2F",
"+	c #5C5C5C",
"@	c #666666",
"#	c #333333",
"$	c #4C4C4C",
"%	c #4B4B4B",
"&	c #434343",
"*	c #3C3C3C",
"=	c #555555",
"........................",
"........................",
"........................",
"........................",
"........................",
"........................",
"........................",
"........................",
"...........++...........",
"...........@@...........",
"...........@@...........",
".........#.@@.#.........",
"........$@$@@$@%........",
"........&@@@@@@&........",
".........*+@@+*.........",
"..........#==#..........",
"........................",
"........................",
"........................",
"........................",
"........................",
"........................",
"........................",
"........................"};
