/* XPM */
/* This file is a part of the NsCDE - Not so Common Desktop Environment */
static char *_8x48_media_playback_start_rtl[] = {
/* columns rows colors chars-per-pixel */
"48 48 4 1 ",
"@ s foreground m white c #ffffffffffff",
". s bottomShadowColor m black c #5fc55fc572bf",
"X s background m black c #1b1b40403636",
"o s topShadowColor m white c #8d8da01f9b1a",
/* pixels */
"oooooooooooooooooooooooooooooooooooooooooooooooo",
"ooooooooooooooooooooooooooooooooooooooooooooooo.",
"oooooooooooooooooooooooooooooooooooooooooooooo..",
"oooXXXXXXXXXXXXXXXXXXXXXXXXXXXXXXXXXXXXXXXXXX...",
"oooXXXXXXXXXXXXXXXXXXXXXXXXXXXXXXXXXXXXXXXXXX...",
"oooXXXXXXXXXXXXXXXXXXXXXXXXXXXXXXXXXXXXXXXXXX...",
"oooXXXXXXXXXXXXXXXXXXXXXXXXXXXXXXXXXXXXXXXXXX...",
"oooXXXXXXXXXXXXXXXXXXXXXXXXXXXXXXXXXXXXXXXXXX...",
"oooXXXXXXXXXXXXXXXXXXXXXXXXXXXXXXXXXXXXXXXXXX...",
"oooXXXXXXXXXXXXXXXXXXXXXXXXXXXXXXXXXXXXXXXXXX...",
"oooXXXXXXXXXXXXXXXXXXXXXXXXXXXXXXXXXXXXXXXXXX...",
"oooXXXXXXXXXXXXXXXXXXXXXXXXXXXXXXXXXXXXXXXXXX...",
"oooXXXXXXXXXXXXXXXXXXXXXXXXXXXXXXXXXXXXXXXXXX...",
"oooXXXXXXXXXXXXXXXXXXXXXXXXXXXXXXXXXXXXXXXXXX...",
"oooXXXXXXXXXXXXXXXXXXXXXXXXXXXXXXXXXXXXXXXXXX...",
"oooXXXXXXXXXXXXXXXXXXXXXXXXXX@@@XXXXXXXXXXXXX...",
"oooXXXXXXXXXXXXXXXXXXXXXXXX@@@@@XXXXXXXXXXXXX...",
"oooXXXXXXXXXXXXXXXXXXXXXX@@@@@@@XXXXXXXXXXXXX...",
"oooXXXXXXXXXXXXXXXXXXXX@@@@@@@@@XXXXXXXXXXXXX...",
"oooXXXXXXXXXXXXXXXXXX@@@@@@@@@@@XXXXXXXXXXXXX...",
"oooXXXXXXXXXXXXXXXX@@@@@@@@@@@@@XXXXXXXXXXXXX...",
"oooXXXXXXXXXXXXXX@@@@@@@@@@@@@@@XXXXXXXXXXXXX...",
"oooXXXXXXXXXXXXX@@@@@@@@@@@@@@@@XXXXXXXXXXXXX...",
"oooXXXXXXXXXXX@@@@@@@@@@@@@@@@@@XXXXXXXXXXXXX...",
"oooXXXXXXXXXXXXX@@@@@@@@@@@@@@@@XXXXXXXXXXXXX...",
"oooXXXXXXXXXXXXXX@@@@@@@@@@@@@@@XXXXXXXXXXXXX...",
"oooXXXXXXXXXXXXXXXX@@@@@@@@@@@@@XXXXXXXXXXXXX...",
"oooXXXXXXXXXXXXXXXXXX@@@@@@@@@@@XXXXXXXXXXXXX...",
"oooXXXXXXXXXXXXXXXXXXXX@@@@@@@@@XXXXXXXXXXXXX...",
"oooXXXXXXXXXXXXXXXXXXXXXX@@@@@@@XXXXXXXXXXXXX...",
"oooXXXXXXXXXXXXXXXXXXXXXXXX@@@@@XXXXXXXXXXXXX...",
"oooXXXXXXXXXXXXXXXXXXXXXXXXXX@@@XXXXXXXXXXXXX...",
"oooXXXXXXXXXXXXXXXXXXXXXXXXXXXXXXXXXXXXXXXXXX...",
"oooXXXXXXXXXXXXXXXXXXXXXXXXXXXXXXXXXXXXXXXXXX...",
"oooXXXXXXXXXXXXXXXXXXXXXXXXXXXXXXXXXXXXXXXXXX...",
"oooXXXXXXXXXXXXXXXXXXXXXXXXXXXXXXXXXXXXXXXXXX...",
"oooXXXXXXXXXXXXXXXXXXXXXXXXXXXXXXXXXXXXXXXXXX...",
"oooXXXXXXXXXXXXXXXXXXXXXXXXXXXXXXXXXXXXXXXXXX...",
"oooXXXXXXXXXXXXXXXXXXXXXXXXXXXXXXXXXXXXXXXXXX...",
"oooXXXXXXXXXXXXXXXXXXXXXXXXXXXXXXXXXXXXXXXXXX...",
"oooXXXXXXXXXXXXXXXXXXXXXXXXXXXXXXXXXXXXXXXXXX...",
"oooXXXXXXXXXXXXXXXXXXXXXXXXXXXXXXXXXXXXXXXXXX...",
"oooXXXXXXXXXXXXXXXXXXXXXXXXXXXXXXXXXXXXXXXXXX...",
"oooXXXXXXXXXXXXXXXXXXXXXXXXXXXXXXXXXXXXXXXXXX...",
"oooXXXXXXXXXXXXXXXXXXXXXXXXXXXXXXXXXXXXXXXXXX...",
"ooo.............................................",
"oo..............................................",
"o..............................................."
};
