/* XPM */
/* This file is a part of the NsCDE - Not so Common Desktop Environment */
static char *_8x48_media_seek_forward_rtl[] = {
/* columns rows colors chars-per-pixel */
"48 48 4 1 ",
"@ s foreground m white c #ffffffffffff",
". s bottomShadowColor m black c #5fc55fc572bf",
"X s background m black c #1b1b40403636",
"o s topShadowColor m white c #8d8da01f9b1a",
/* pixels */
"oooooooooooooooooooooooooooooooooooooooooooooooo",
"ooooooooooooooooooooooooooooooooooooooooooooooo.",
"oooooooooooooooooooooooooooooooooooooooooooooo..",
"oooXXXXXXXXXXXXXXXXXXXXXXXXXXXXXXXXXXXXXXXXXX...",
"oooXXXXXXXXXXXXXXXXXXXXXXXXXXXXXXXXXXXXXXXXXX...",
"oooXXXXXXXXXXXXXXXXXXXXXXXXXXXXXXXXXXXXXXXXXX...",
"oooXXXXXXXXXXXXXXXXXXXXXXXXXXXXXXXXXXXXXXXXXX...",
"oooXXXXXXXXXXXXXXXXXXXXXXXXXXXXXXXXXXXXXXXXXX...",
"oooXXXXXXXXXXXXXXXXXXXXXXXXXXXXXXXXXXXXXXXXXX...",
"oooXXXXXXXXXXXXXXXXXXXXXXXXXXXXXXXXXXXXXXXXXX...",
"oooXXXXXXXXXXXXXXXXXXXXXXXXXXXXXXXXXXXXXXXXXX...",
"oooXXXXXXXXXXXXXXXXXXXXXXXXXXXXXXXXXXXXXXXXXX...",
"oooXXXXXXXXXXXXXXXXXXXXXXXXXXXXXXXXXXXXXXXXXX...",
"oooXXXXXXXXXXXXXXXXXXXXXXXXXXXXXXXXXXXXXXXXXX...",
"oooXXXXXXXXXXXXXXXXXXXXXXXXXXXXXXXXXXXXXXXXXX...",
"oooXXXXXXXXXXXXXXXXXX@@@XXXXXXXXXXXXXX@@@XXXX...",
"oooXXXXXXXXXXXXXXXX@@@@@XXXXXXXXXXXX@@@@@XXXX...",
"oooXXXXXXXXXXXXXX@@@@@@@XXXXXXXXXX@@@@@@@XXXX...",
"oooXXXXXXXXXXXX@@@@@@@@@XXXXXXXX@@@@@@@@@XXXX...",
"oooXXXXXXXXXX@@@@@@@@@@@XXXXXX@@@@@@@@@@@XXXX...",
"oooXXXXXXXX@@@@@@@@@@@@@XXXX@@@@@@@@@@@@@XXXX...",
"oooXXXXXX@@@@@@@@@@@@@@@XX@@@@@@@@@@@@@@@XXXX...",
"oooXXXX@@@@@@@@@@@@@@@@@X@@@@@@@@@@@@@@@@XXXX...",
"oooXXX@@@@@@@@@@@@@@@@@@@@@@@@@@@@@@@@@@@XXXX...",
"oooXXXX@@@@@@@@@@@@@@@@@X@@@@@@@@@@@@@@@@XXXX...",
"oooXXXXXX@@@@@@@@@@@@@@@XX@@@@@@@@@@@@@@@XXXX...",
"oooXXXXXXXX@@@@@@@@@@@@@XXXX@@@@@@@@@@@@@XXXX...",
"oooXXXXXXXXXX@@@@@@@@@@@XXXXXX@@@@@@@@@@@XXXX...",
"oooXXXXXXXXXXXX@@@@@@@@@XXXXXXXX@@@@@@@@@XXXX...",
"oooXXXXXXXXXXXXXX@@@@@@@XXXXXXXXXX@@@@@@@XXXX...",
"oooXXXXXXXXXXXXXXXX@@@@@XXXXXXXXXXXX@@@@@XXXX...",
"oooXXXXXXXXXXXXXXXXXX@@@XXXXXXXXXXXXXX@@@XXXX...",
"oooXXXXXXXXXXXXXXXXXXXXXXXXXXXXXXXXXXXXXXXXXX...",
"oooXXXXXXXXXXXXXXXXXXXXXXXXXXXXXXXXXXXXXXXXXX...",
"oooXXXXXXXXXXXXXXXXXXXXXXXXXXXXXXXXXXXXXXXXXX...",
"oooXXXXXXXXXXXXXXXXXXXXXXXXXXXXXXXXXXXXXXXXXX...",
"oooXXXXXXXXXXXXXXXXXXXXXXXXXXXXXXXXXXXXXXXXXX...",
"oooXXXXXXXXXXXXXXXXXXXXXXXXXXXXXXXXXXXXXXXXXX...",
"oooXXXXXXXXXXXXXXXXXXXXXXXXXXXXXXXXXXXXXXXXXX...",
"oooXXXXXXXXXXXXXXXXXXXXXXXXXXXXXXXXXXXXXXXXXX...",
"oooXXXXXXXXXXXXXXXXXXXXXXXXXXXXXXXXXXXXXXXXXX...",
"oooXXXXXXXXXXXXXXXXXXXXXXXXXXXXXXXXXXXXXXXXXX...",
"oooXXXXXXXXXXXXXXXXXXXXXXXXXXXXXXXXXXXXXXXXXX...",
"oooXXXXXXXXXXXXXXXXXXXXXXXXXXXXXXXXXXXXXXXXXX...",
"oooXXXXXXXXXXXXXXXXXXXXXXXXXXXXXXXXXXXXXXXXXX...",
"ooo.............................................",
"oo..............................................",
"o..............................................."
};
