/* XPM */
/* This file is a part of the NsCDE - Not so Common Desktop Environment */
static char * ArrowLeft_xpm[] = {
"32 32 4 1",
".      c #0b8b435740f0",
"+      c #147a77777332",
"@      c #18188c8c8787",
"#      c #9538cad7c887",
"@..............................@",
".#############################+.",
".############################++.",
".##@@@@@@@@@@@@@@@@@@@@@@@@@@++.",
".##@@@@@@@@@@@@@@@@@@@@@@@@@@++.",
".##@@@@@@@@@@@@@@@@@@@@@@@@@@++.",
".##@@@@@@@@@@@@@@@@@@@@@@@@@@++.",
".##@@@@@@@@@@@@@@@@@@@..@@@@@++.",
".##@@@@@@@@@@@@@@@@@..@#@@@@@++.",
".##@@@@@@@@@@@@@@@..@@@#@@@@@++.",
".##@@@@@@@@@@@@@..@@@@@#@@@@@++.",
".##@@@@@@@@@@@..@@@@@@@#@@@@@++.",
".##@@@@@@@@@..@@@@@@@@@#@@@@@++.",
".##@@@@@@@..@@@@@@@@@@@#@@@@@++.",
".##@@@@@..@@@@@@@@@@@@@#@@@@@++.",
".##@@@..@@@@@@@@@@@@@@@#@@@@@++.",
".##@@@#@@@@@@@@@@@@@@@@#@@@@@++.",
".##@@@@@#@@@@@@@@@@@@@@#@@@@@++.",
".##@@@@@@@#@@@@@@@@@@@@#@@@@@++.",
".##@@@@@@@@@#@@@@@@@@@@#@@@@@++.",
".##@@@@@@@@@@@#@@@@@@@@#@@@@@++.",
".##@@@@@@@@@@@@@#@@@@@@#@@@@@++.",
".##@@@@@@@@@@@@@@@#@@@@#@@@@@++.",
".##@@@@@@@@@@@@@@@@@#@@#@@@@@++.",
".##@@@@@@@@@@@@@@@@@@@##@@@@@++.",
".##@@@@@@@@@@@@@@@@@@@@@@@@@@++.",
".##@@@@@@@@@@@@@@@@@@@@@@@@@@++.",
".##@@@@@@@@@@@@@@@@@@@@@@@@@@++.",
".##@@@@@@@@@@@@@@@@@@@@@@@@@@++.",
".#+++++++++++++++++++++++++++++.",
".++++++++++++++++++++++++++++++.",
"@..............................@"};
