/* XPM */
/* $XConsortium: Fplock.s.pm /main/3 1995/07/18 16:59:26 drk $ */
/*********************************************************************
*  (c) Copyright 1993, 1994 Hewlett-Packard Company	
*  (c) Copyright 1993, 1994 International Business Machines Corp.
*  (c) Copyright 1993, 1994 Sun Microsystems, Inc.
*  (c) Copyright 1993, 1994 Unix System Labs, Inc., a subsidiary of
*      Novell, Inc.
**********************************************************************/

/* Designed by the User Interaction Design Group, Hewlett-Packard */
static char *lock24[]={
/* width height ncolors cpp [x_hot y_hot] */
"24 24 20 1 0 0",
/* colors */
"$    s topShadowColor m white c #8d8da01f9b1a",
"&    c None",
"(    s selectColor m white c #3d705d03547a",
"*    s bottomShadowColor m black c #5fc55fc572bf",
". s iconColor1 c black     m black",
", s iconColor2 c white     m white",
"4 s iconColor3 c red       m black",
"6 s iconColor4 c green     m white",
"8 s iconColor5 c blue      m black",
"2 s iconColor6 c yellow    m white",
": s iconColor7 c cyan      m white",
"0 s iconColor8 c magenta   m black",
"<    s iconGray1     m white c #dededededede",
">    s iconGray2     m white c #bdbdbdbdbdbd",
"@    s iconGray3     m white c #adadadadadad",
"D    s iconGray4     m white c #949494949494",
"F    s iconGray5     m black c #737373737373",
"H    s iconGray6     m black c #636363636363",
"J    s iconGray7     m black c #424242424242",
"L    s iconGray8     m black c #212121212121",
/* pixels */
"&&&&&&&&&&&&&&&&&&&&&&&&",
"&&&&&&&&&&&&&&&&&&&&&&&&",
"&&&&&&&&&&&&&&&&&&&&&&&&",
"&&&&&&&&*******&&&&&&&&&",
"&&&&&&&**<<<<<D.$&&&&&&&",
"&&&&&&**<<DDD<<D.$&&&&&&",
"&&&&&&*<<D....<D.$&&&&&&",
"&&&&&&*<D.$$$$<D.$&&&&&&",
"&&&&&&*<D.$&&*<D.$&&&&&&",
"&&&&&&*<D.$&&*<D.$&&&&&&",
"&&&&***<D.$***<D.$*&&&&&",
"&&&&*<<<<<<<<<<<<<$&&&&&",
"&&&&*<DDDDDDDDDDDJ$&&&&&",
"&&&&*<DHHHHHHHHHHJ$&&&&&",
"&&&&*<DDDDDDDDDDDJ$&&&&&",
"&&&&*<DHHHHHHHHHHJ$&&&&&",
"&&&&*<DDDDDDDDDDDJ$&&&&&",
"&&&&*<DHHHHHHHHHHJ$&&&&&",
"&&&&*<DDDDDDDDDDDJ$&&&&&",
"&&&&*<............$&&&&&",
"&&&&*$$$$$$$$$$$$$$&&&&&",
"&&&&&&&&&&&&&&&&&&&&&&&&",
"&&&&&&&&&&&&&&&&&&&&&&&&",
"&&&&&&&&&&&&&&&&&&&&&&&&"
};
