/* XPM */
/* This file is a part of the NsCDE - Not so Common Desktop Environment */
static char * IconBgA_xpm[] = {
"76 76 6 1",
"%      s topShadowColor  m white c #8cb8c175ca53",
".      s bottomShadowColor  m black c #03c6391e4216",
"$      s topShadowColor  m white c #8d8da01f9b1a",
"+      s bottomShadowColor  m black c #5fc55fc572bf",
"#      s background m black c #1b1b40403636",
"@      s background m black c #080879798c8c",
"%%%%%%%%%%%%%%%%%%%%%%%%%%%%%%%%%%%%%%%%%%%%%%%%%%%%%%%%%%%%%%%%%%%%%%%%%%%%",
"%%%%%%%%%%%%%%%%%%%%%%%%%%%%%%%%%%%%%%%%%%%%%%%%%%%%%%%%%%%%%%%%%%%%%%%%%%%.",
"%%@@@@@@@@@@@@@@@@@@@@@@@@@@@@@@@@@@@@@@@@@@@@@@@@@@@@@@@@@@@@@@@@@@@@@@@@..",
"%%@@@@@@@@@@@@@@@@@@@@@@@@@@@@@@@@@@@@@@@@@@@@@@@@@@@@@@@@@@@@@@@@@@@@@@@@..",
"%%@@....................................................................@@..",
"%%@@.$$$$$$$$$$$$$$$$$$$$$$$$$$$$$$$$$$$$$$$$$$$$$$$$$$$$$$$$$$$$$$$$$$%@@..",
"%%@@.$################################################################+%@@..",
"%%@@.$################################################################+%@@..",
"%%@@.$################################################################+%@@..",
"%%@@.$################################################################+%@@..",
"%%@@.$################################################################+%@@..",
"%%@@.$################################################################+%@@..",
"%%@@.$################################################################+%@@..",
"%%@@.$################################################################+%@@..",
"%%@@.$################################################################+%@@..",
"%%@@.$################################################################+%@@..",
"%%@@.$################################################################+%@@..",
"%%@@.$################################################################+%@@..",
"%%@@.$################################################################+%@@..",
"%%@@.$################################################################+%@@..",
"%%@@.$################################################################+%@@..",
"%%@@.$################################################################+%@@..",
"%%@@.$################################################################+%@@..",
"%%@@.$################################################################+%@@..",
"%%@@.$################################################################+%@@..",
"%%@@.$################################################################+%@@..",
"%%@@.$################################################################+%@@..",
"%%@@.$################################################################+%@@..",
"%%@@.$################################################################+%@@..",
"%%@@.$################################################################+%@@..",
"%%@@.$################################################################+%@@..",
"%%@@.$################################################################+%@@..",
"%%@@.$################################################################+%@@..",
"%%@@.$################################################################+%@@..",
"%%@@.$################################################################+%@@..",
"%%@@.$################################################################+%@@..",
"%%@@.$################################################################+%@@..",
"%%@@.$################################################################+%@@..",
"%%@@.$################################################################+%@@..",
"%%@@.$################################################################+%@@..",
"%%@@.$################################################################+%@@..",
"%%@@.$################################################################+%@@..",
"%%@@.$################################################################+%@@..",
"%%@@.$################################################################+%@@..",
"%%@@.$################################################################+%@@..",
"%%@@.$################################################################+%@@..",
"%%@@.$################################################################+%@@..",
"%%@@.$################################################################+%@@..",
"%%@@.$################################################################+%@@..",
"%%@@.$################################################################+%@@..",
"%%@@.$################################################################+%@@..",
"%%@@.$################################################################+%@@..",
"%%@@.$################################################################+%@@..",
"%%@@.$################################################################+%@@..",
"%%@@.$################################################################+%@@..",
"%%@@.$################################################################+%@@..",
"%%@@.$################################################################+%@@..",
"%%@@.$################################################################+%@@..",
"%%@@.$################################################################+%@@..",
"%%@@.$################################################################+%@@..",
"%%@@.$################################################################+%@@..",
"%%@@.$################################################################+%@@..",
"%%@@.$################################################################+%@@..",
"%%@@.$################################################################+%@@..",
"%%@@.$################################################################+%@@..",
"%%@@.$################################################################+%@@..",
"%%@@.$################################################################+%@@..",
"%%@@.$################################################################+%@@..",
"%%@@.$################################################################+%@@..",
"%%@@.$################################################################+%@@..",
"%%@@.$################################################################+%@@..",
"%%@@.$+++++++++++++++++++++++++++++++++++++++++++++++++++++++++++++++++%@@..",
"%%@@.%%%%%%%%%%%%%%%%%%%%%%%%%%%%%%%%%%%%%%%%%%%%%%%%%%%%%%%%%%%%%%%%%%%@@..",
"%%@@@@@@@@@@@@@@@@@@@@@@@@@@@@@@@@@@@@@@@@@@@@@@@@@@@@@@@@@@@@@@@@@@@@@@@@..",
"%%@@@@@@@@@@@@@@@@@@@@@@@@@@@@@@@@@@@@@@@@@@@@@@@@@@@@@@@@@@@@@@@@@@@@@@@@..",
"%..........................................................................."};
