/* XPM */
/* This file is a part of the NsCDE - Not so Common Desktop Environment */
static char * WSM2BackBtn1_xpm[] = {
"254 28 3 1",
"       s background   m black   c #6c6c69698b8b",
".      s topShadowColor   m white   c #bce3bb84cb0a",
"#      s bottomShadowColor   m white   c #352e33b44472",
"##############################################################################################################################################################################################################################################################",
"#                                                                                                                                                                                                                                                            .",
"#                                                                                                                                                                                                                                                            .",
"#                                                                                                                                                                                                                                                            .",
"#                                                                                                                                                                                                                                                            .",
"#                                                                                                                                                                                                                                                            .",
"#                                                                                                                                                                                                                                                            .",
"#                                                                                                                                                                                                                                                            .",
"#                                                                                                                                                                                                                                                            .",
"#                                                                                                                                                                                                                                                            .",
"#                                                                                                                                                                                                                                                            .",
"#                                                                                                                                                                                                                                                            .",
"#                                                                                                                                                                                                                                                            .",
"#                                                                                                                                                                                                                                                            .",
"#                                                                                                                                                                                                                                                            .",
"#                                                                                                                                                                                                                                                            .",
"#                                                                                                                                                                                                                                                            .",
"#                                                                                                                                                                                                                                                            .",
"#                                                                                                                                                                                                                                                            .",
"#                                                                                                                                                                                                                                                            .",
"#                                                                                                                                                                                                                                                            .",
"#                                                                                                                                                                                                                                                            .",
"#                                                                                                                                                                                                                                                            .",
"#                                                                                                                                                                                                                                                            .",
"#                                                                                                                                                                                                                                                            .",
"#                                                                                                                                                                                                                                                            .",
"#                                                                                                                                                                                                                                                            .",
"#............................................................................................................................................................................................................................................................."};
