/* XPM */
/* This file is a part of the NsCDE - Not so Common Desktop Environment */
static char *_4x24_media_seek_backward[] = {
/* columns rows colors chars-per-pixel */
"24 24 4 1 ",
"@ s foreground m white c #ffffffffffff",
". s bottomShadowColor m black c #5fc55fc572bf",
"X s background m black c #1b1b40403636",
"o s topShadowColor m white c #8d8da01f9b1a",
/* pixels */
"oooooooooooooooooooooooo",
"ooooooooooooooooooooooo.",
"ooXXXXXXXXXXXXXXXXXXXX..",
"ooXXXXXXXXXXXXXXXXXXXX..",
"ooXXXXXXXXXXXXXXXXXXXX..",
"ooXXXXXXXXXXXXXXXXXXXX..",
"ooXXXXXXXXX@XXXXXX@XXX..",
"ooXXXXXXXX@@XXXXX@@XXX..",
"ooXXXXXXX@@@XXXX@@@XXX..",
"ooXXXXXX@@@@XXX@@@@XXX..",
"ooXXXXX@@@@@XX@@@@@XXX..",
"ooXXXX@@@@@@X@@@@@@XXX..",
"ooXXX@@@@@@@@@@@@@@XXX..",
"ooXXXX@@@@@@X@@@@@@XXX..",
"ooXXXXX@@@@@XX@@@@@XXX..",
"ooXXXXXX@@@@XXX@@@@XXX..",
"ooXXXXXXX@@@XXXX@@@XXX..",
"ooXXXXXXXX@@XXXXX@@XXX..",
"ooXXXXXXXXX@XXXXXX@XXX..",
"ooXXXXXXXXXXXXXXXXXXXX..",
"ooXXXXXXXXXXXXXXXXXXXX..",
"ooXXXXXXXXXXXXXXXXXXXX..",
"oo......................",
"o......................."
};
