/* XPM */
/* This file is a part of the NsCDE - Not so Common Desktop Environment */
static char *_4x24_media_playlist_shuffle[] = {
/* columns rows colors chars-per-pixel */
"24 24 4 1 ",
"@ s foreground m white c #ffffffffffff",
". s bottomShadowColor m black c #5fc55fc572bf",
"X s background m black c #1b1b40403636",
"o s topShadowColor m white c #8d8da01f9b1a",
/* pixels */
"oooooooooooooooooooooooo",
"ooooooooooooooooooooooo.",
"ooXXXXXXXXXXXXXXXXXXXX..",
"ooXXXXXXXXXXXXXXXXXXXX..",
"ooXXXXXXXXXXXXXXX@XXXX..",
"ooXXXXXXXXXXXXXXX@@XXX..",
"ooX@@@@@@@XXX@@@@@@@XX..",
"ooX@@@@@@@@X@@@@@@@@@X..",
"ooX@@@@@@@@@@@@@@@@@XX..",
"ooXXXXXX@@@@@@XXX@@XXX..",
"ooXXXXXXX@@@@@XXX@XXXX..",
"ooXXXXXXXX@@@@XXXXXXXX..",
"ooXXXXXXXX@@@@XXXXXXXX..",
"ooXXXXXXXX@@@@XXX@XXXX..",
"ooXXXXXX@@@@@@XXX@@XXX..",
"ooX@@@@@@@@@@@@@@@@@XX..",
"ooX@@@@@@@@X@@@@@@@@@X..",
"ooX@@@@@@@XXX@@@@@@@XX..",
"ooXXXXXXXXXXXXXXX@@XXX..",
"ooXXXXXXXXXXXXXXX@XXXX..",
"ooXXXXXXXXXXXXXXXXXXXX..",
"ooXXXXXXXXXXXXXXXXXXXX..",
"oo......................",
"o......................."
};
