/* XPM */
/* This file is a part of the NsCDE - Not so Common Desktop Environment */
static char *_2x22_media_playlist_shuffle[] = {
/* columns rows colors chars-per-pixel */
"22 22 4 1 ",
"@ s foreground m white c #ffffffffffff",
". s bottomShadowColor m black c #5fc55fc572bf",
"X s background m black c #1b1b40403636",
"o s topShadowColor m white c #8d8da01f9b1a",
/* pixels */
"oooooooooooooooooooooo",
"oXXXXXXXXXXXXXXXXXXXX.",
"oXXXXXXXXXXXXXXXXXXXX.",
"oXXXXXXXXXXXXXXX@XXXX.",
"oXXXXXXXXXXXXXXX@@XXX.",
"oX@@@@@@@XXX@@@@@@@XX.",
"oX@@@@@@@@X@@@@@@@@@X.",
"oX@@@@@@@@@@@@@@@@@XX.",
"oXXXXXX@@@@@@XXX@@XXX.",
"oXXXXXXX@@@@@XXX@XXXX.",
"oXXXXXXXX@@@@XXXXXXXX.",
"oXXXXXXXX@@@@XXXXXXXX.",
"oXXXXXXXX@@@@XXX@XXXX.",
"oXXXXXX@@@@@@XXX@@XXX.",
"oX@@@@@@@@@@@@@@@@@XX.",
"oX@@@@@@@@X@@@@@@@@@X.",
"oX@@@@@@@XXX@@@@@@@XX.",
"oXXXXXXXXXXXXXXX@@XXX.",
"oXXXXXXXXXXXXXXX@XXXX.",
"oXXXXXXXXXXXXXXXXXXXX.",
"oXXXXXXXXXXXXXXXXXXXX.",
"o....................."
};
