/* XPM */
/* This file is a part of the NsCDE - Not so Common Desktop Environment */
static char *format_indent_more[] = {
/* columns rows colors chars-per-pixel */
"22 22 4 1 ",
"@ s foreground m white c #ffffffffffff",
". s bottomShadowColor m black c #5fc55fc572bf",
"X s background m black c #1b1b40403636",
"o s topShadowColor m white c #8d8da01f9b1a",
/* pixels */
"ooooooooooooooooooooo.",
"oXXXXXXXXXXXXXXXXXXXX.",
"oXX@@@@@@@@@@@@@@@@XX.",
"oXX@@@@@@@@@@@@@@@@XX.",
"oXXXXXXXXXXXXXXXXXXXX.",
"oXX@XXXXXXXXXXXXXXXXX.",
"oXX@@@XXXX@@@@@@@@@XX.",
"oXXX@@@@XX@@@@@@@@@XX.",
"oXXXXXX@@XXXXXXXXXXXX.",
"oXXXXXX@@XXXXXXXXXXXX.",
"oXXX@@@@XX@@@@@@@@@XX.",
"oXX@@@XXXX@@@@@@@@@XX.",
"oXX@XXXXXXXXXXXXXXXXX.",
"oXXXXXXXXXXXXXXXXXXXX.",
"oXX@@@@@@@@@@@@@@@@XX.",
"oXX@@@@@@@@@@@@@@@@XX.",
"oXXXXXXXXXXXXXXXXXXXX.",
"oXXXXXXXXXXXXXXXXXXXX.",
"oXX@@@@@@@@@@@@@@@@XX.",
"oXX@@@@@@@@@@@@@@@@XX.",
"oXXXXXXXXXXXXXXXXXXXX.",
"......................"
};
