/* XPM */
/* This file is a part of the NsCDE - Not so Common Desktop Environment */
static char *_2x32_media_skip_forward[] = {
/* columns rows colors chars-per-pixel */
"32 32 4 1 ",
"@ s foreground m white c #ffffffffffff",
". s bottomShadowColor m black c #5fc55fc572bf",
"X s background m black c #1b1b40403636",
"o s topShadowColor m white c #8d8da01f9b1a",
/* pixels */
"oooooooooooooooooooooooooooooooo",
"ooooooooooooooooooooooooooooooo.",
"ooXXXXXXXXXXXXXXXXXXXXXXXXXXXX..",
"ooXXXXXXXXXXXXXXXXXXXXXXXXXXXX..",
"ooXXXXXXXXXXXXXXXXXXXXXXXXXXXX..",
"ooXXXXXXXXXXXXXXXXXXXXXXXXXXXX..",
"ooXXXXXXXXXXXXXXXXXXXXXXXXXXXX..",
"ooXXXXXXXXXXXXXXXXXXXXXXXXXXXX..",
"ooXXXXXXXXXXXXXXXXXXXXXXXXXXXX..",
"ooXXXXXXXXXXXXXXXXXXXXXXX@@@XX..",
"ooXX@@XXXXXXXX@@XXXXXXXXX@@@XX..",
"ooXX@@@@XXXXXX@@@@XXXXXXX@@@XX..",
"ooXX@@@@@@XXXX@@@@@@XXXXX@@@XX..",
"ooXX@@@@@@@@XX@@@@@@@@XXX@@@XX..",
"ooXX@@@@@@@@@@@@@@@@@@@@X@@@XX..",
"ooXX@@@@@@@@@@@@@@@@@@@@@@@@XX..",
"ooXX@@@@@@@@@@@@@@@@@@@@X@@@XX..",
"ooXX@@@@@@@@XX@@@@@@@@XXX@@@XX..",
"ooXX@@@@@@XXXX@@@@@@XXXXX@@@XX..",
"ooXX@@@@XXXXXX@@@@XXXXXXX@@@XX..",
"ooXX@@XXXXXXXX@@XXXXXXXXX@@@XX..",
"ooXXXXXXXXXXXXXXXXXXXXXXX@@@XX..",
"ooXXXXXXXXXXXXXXXXXXXXXXXXXXXX..",
"ooXXXXXXXXXXXXXXXXXXXXXXXXXXXX..",
"ooXXXXXXXXXXXXXXXXXXXXXXXXXXXX..",
"ooXXXXXXXXXXXXXXXXXXXXXXXXXXXX..",
"ooXXXXXXXXXXXXXXXXXXXXXXXXXXXX..",
"ooXXXXXXXXXXXXXXXXXXXXXXXXXXXX..",
"ooXXXXXXXXXXXXXXXXXXXXXXXXXXXX..",
"ooXXXXXXXXXXXXXXXXXXXXXXXXXXXX..",
"oo..............................",
"o..............................."
};
