/* XPM */
/* This file is a part of the NsCDE - Not so Common Desktop Environment */
static char *_6x16_media_skip_backward[] = {
/* columns rows colors chars-per-pixel */
"22 22 4 1 ",
"@ s foreground m white c #ffffffffffff",
". s bottomShadowColor m black c #5fc55fc572bf",
"X s background m black c #1b1b40403636",
"o s topShadowColor m white c #8d8da01f9b1a",
/* pixels */
"oooooooooooooooooooooo",
"oXXXXXXXXXXXXXXXXXXXX.",
"oXXXXXXXXXXXXXXXXXXXX.",
"oXXXXXXXXXXXXXXXXXXXX.",
"oXX@@XXXXXXXXXXXXXXXX.",
"oXX@@XXXXXX@XXXXXX@XX.",
"oXX@@XXXXX@@XXXXX@@XX.",
"oXX@@XXXX@@@XXXX@@@XX.",
"oXX@@XXX@@@@XXX@@@@XX.",
"oXX@@XX@@@@@XX@@@@@XX.",
"oXX@@X@@@@@@X@@@@@@XX.",
"oXX@@@@@@@@@@@@@@@@XX.",
"oXX@@X@@@@@@X@@@@@@XX.",
"oXX@@XX@@@@@XX@@@@@XX.",
"oXX@@XXX@@@@XXX@@@@XX.",
"oXX@@XXXX@@@XXXX@@@XX.",
"oXX@@XXXXX@@XXXXX@@XX.",
"oXX@@XXXXXX@XXXXXX@XX.",
"oXX@@XXXXXXXXXXXXXXXX.",
"oXXXXXXXXXXXXXXXXXXXX.",
"oXXXXXXXXXXXXXXXXXXXX.",
"o....................."
};
