/* XPM */
/* This file is a part of the NsCDE - Not so Common Desktop Environment */
static char *_6x16_media_record[] = {
/* columns rows colors chars-per-pixel */
"16 16 4 1 ",
"@ c red",
". s bottomShadowColor m black c #5fc55fc572bf",
"X s background m black c #1b1b40403636",
"o s topShadowColor m white c #8d8da01f9b1a",
/* pixels */
"oooooooooooooooo",
"oXXXXXXXXXXXXXX.",
"oXXXXooooooXXXX.",
"oXXXoo@@@@ooXXX.",
"oXXoo@@@@@@ooXX.",
"oXoo@@@@@@@@ooX.",
"oXo@@@@@@@@@@oX.",
"oXo@@@@@@@@@@oX.",
"oXo@@@@@@@@@@oX.",
"oXo@@@@@@@@@@oX.",
"oXoo@@@@@@@@ooX.",
"oXXoo@@@@@@ooXX.",
"oXXXoo@@@@ooXXX.",
"oXXXXooooooXXXX.",
"oXXXXXXXXXXXXXX.",
"o..............."
};
