/* XPM */
/* This file is a part of the NsCDE - Not so Common Desktop Environment */
static char *zoom_fit_best_16x16[] = {
/* columns rows colors chars-per-pixel */
"16 16 4 1 ",
".      s None m None c None",
"@      s bottomShadowColor m black c #5fc55fc572bf",
"X      s topShadowColor m black c #8d8da01f9b1a",
"o      s foreground m black c #ffffffffffff",
/* pixels */
"XXXXXXXXXXXXXXXX",
"X..............@",
"X..............@",
"X..oooo..oooo..@",
"X..o........o..@",
"X..o........o..@",
"X..o........o..@",
"X..............@",
"X..............@",
"X..o........o..@",
"X..o........o..@",
"X..o........o..@",
"X..oooo..oooo..@",
"X..............@",
"X..............@",
"X@@@@@@@@@@@@@@@"
};
